<svg width="1369" height="109" viewBox="0 0 1369 109" fill="none" xmlns="http://www.w3.org/2000/svg">
<path d="M50.0625 58.25H48.5813L48.0563 57.7438C49.8938 55.6063 51 52.8313 51 49.8125C51 43.0813 45.5438 37.625 38.8125 37.625C32.0813 37.625 26.625 43.0813 26.625 49.8125C26.625 56.5438 32.0813 62 38.8125 62C41.8313 62 44.6063 60.8938 46.7438 59.0563L47.25 59.5813V61.0625L56.625 70.4188L59.4188 67.625L50.0625 58.25V58.25ZM38.8125 58.25C34.1438 58.25 30.375 54.4813 30.375 49.8125C30.375 45.1438 34.1438 41.375 38.8125 41.375C43.4813 41.375 47.25 45.1438 47.25 49.8125C47.25 54.4813 43.4813 58.25 38.8125 58.25Z" fill="white"/>
<rect x="0.5" y="0.5" width="1368" height="108" rx="5.5" stroke="white"/>
</svg>
